<svg xmlns="http://www.w3.org/2000/svg" width="24" height="24" viewBox="0 0 24 24">
    <g fill="none" fill-rule="evenodd">
        <g>
            <g>
                <g>
                    <g>
                        <g transform="translate(-849.000000, -525.000000) translate(720.000000, 0.000000) translate(113.000000, 182.000000) translate(0.000000, 303.000000) translate(16.000000, 40.000000)">
                            <path d="M0 0H24V24H0z"/>
                            <path fill="#FF3A00" fill-opacity=".196" fill-rule="nonzero" stroke="#FF3A00" stroke-width="1.5" d="M12 3.667C7.4 3.667 3.667 7.4 3.667 12S7.4 20.333 12 20.333 20.333 16.6 20.333 12 16.6 3.667 12 3.667h0z"/>
                            <rect width="1.5" height="5" x="11.25" y="8" fill="#FF3A00" rx=".75"/>
                            <circle cx="12" cy="15.25" r="1" fill="#FF3A00"/>
                        </g>
                    </g>
                </g>
            </g>
        </g>
    </g>
</svg>
