<svg xmlns="http://www.w3.org/2000/svg" xmlns:xlink="http://www.w3.org/1999/xlink" width="24" height="24" viewBox="0 0 24 24">
    <defs>
        <path id="70rdahtq1a" d="M0 0H24V24H0z"/>
    </defs>
    <g fill="none" fill-rule="evenodd">
        <g>
            <g>
                <g>
                    <g>
                        <g transform="translate(-847.000000, -424.000000) translate(720.000000, 0.000000) translate(113.000000, 182.000000) translate(0.000000, 202.000000) translate(14.000000, 40.000000)">
                            <mask id="zuzxp3gdub" fill="#fff">
                                <use xlink:href="#70rdahtq1a"/>
                            </mask>
                            <path fill="#3A3A3A" d="M11.22 9.22c.266-.267.683-.29.976-.073l.084.073 5 5c.293.293.293.767 0 1.06-.266.267-.683.29-.976.073l-.084-.073-4.47-4.469-4.47 4.47c-.266.266-.683.29-.976.072l-.084-.073c-.267-.266-.29-.683-.073-.976l.073-.084 5-5z" mask="url(#zuzxp3gdub)" transform="translate(11.750000, 12.250000) rotate(-180.000000) translate(-11.750000, -12.250000)"/>
                        </g>
                    </g>
                </g>
            </g>
        </g>
    </g>
</svg>
